…
``` r
library(tidyverse)
library(completejourney)
```

The exercises that follow will use various data sets included in the
`completejourney` package to
include:

``` r
transactions <- transactions_sample  # just using a sample of the entire data

transactions
## # A tibble: 75,000 x 11
##    household_id store_id basket_id product_id quantity sales_value
##    <chr>        <chr>    <chr>     <chr>         <dbl>       <dbl>
##  1 2261         309      31625220… 940996            1        3.86
##  2 2131         368      32053127… 873902            1        1.59
##  3 511          316      32445856… 847901            1        1   
##  4 400          388      31932241… 13094913          2       11.9 
##  5 918          340      32074655… 1085604           1        1.29
##  6 718          324      32614612… 883203            1        2.5 
##  7 868          323      32074722… 9884484           1        3.49
##  8 1688         450      34850403… 1028715           1        2   
##  9 467          31782    31280745… 896613            2        6.55
## 10 1947         32004    32744181… 978497            1        3.99
## # … with 74,990 more rows, and 5 more variables: retail_disc <dbl>,
## #   coupon_disc <dbl>, coupon_match_disc <dbl>, week <int>,
## #   transaction_timestamp <dttm>
products
## # A tibble: 92,331 x 7
##    product_id manufacturer_id department brand product_category
##    <chr>      <chr>           <chr>      <fct> <chr>           
##  1 25671      2               GROCERY    Nati… FRZN ICE        
##  2 26081      2               MISCELLAN… Nati… <NA>            
##  3 26093      69              PASTRY     Priv… BREAD           
##  4 26190      69              GROCERY    Priv… FRUIT - SHELF S…
##  5 26355      69              GROCERY    Priv… COOKIES/CONES   
##  6 26426      69              GROCERY    Priv… SPICES & EXTRAC…
##  7 26540      69              GROCERY    Priv… COOKIES/CONES   
##  8 26601      69              DRUG GM    Priv… VITAMINS        
##  9 26636      69              PASTRY     Priv… BREAKFAST SWEETS
## 10 26691      16              GROCERY    Priv… PNT BTR/JELLY/J…
## # … with 92,321 more rows, and 2 more variables: product_type <chr>,
## #   package_size <chr>
```
…
#### Answer

``` r
(transactions <- transactions %>% 
  mutate(
    regular_price     = (sales_value + retail_disc + coupon_match_disc) / quantity,
    loyalty_price     = (sales_value + coupon_match_disc) / quantity,
    coupon_price      = (sales_value - coupon_disc) / quantity
  ) %>% 
  select(regular_price, loyalty_price, coupon_price, everything())
)
## # A tibble: 75,000 x 14
##    regular_price loyalty_price coupon_price household_id store_id basket_id
##            <dbl>         <dbl>        <dbl> <chr>        <chr>    <chr>    
##  1          4.29          3.86         3.86 2261         309      31625220…
##  2          2.49          1.59         1.59 2131         368      32053127…
##  3          1.69          1            1    511          316      32445856…
##  4          7.38          5.94         5.94 400          388      31932241…
##  5          1.29          1.29         1.29 918          340      32074655…
##  6          2.99          2.5          2.5  718          324      32614612…
##  7          3.49          3.49         3.49 868          323      32074722…
##  8          3.79          2            2    1688         450      34850403…
##  9          5.50          3.28         3.28 467          31782    31280745…
## 10          3.99          3.99         3.99 1947         32004    32744181…
## # … with 74,990 more rows, and 8 more variables: product_id <chr>,
## #   quantity <dbl>, sales_value <dbl>, retail_disc <dbl>,
## #   coupon_disc <dbl>, coupon_match_disc <dbl>, week <int>,
## #   transaction_timestamp <dttm>
```
…
This question is designed to strengthen your ability to use the `dplyr`
verbs `mutate()`, `group_by()`, `summarize()`, and `arrange()`.

#### Answer

`store_id == 367` has has the largest total sales value and `store_id
== 224` has the largest average loyalty discount percentage.

``` r
transactions %>%
  group_by(store_id) %>%
  summarize(total_sales_value = sum(sales_value, na.rm = TRUE)) %>%
  arrange(-total_sales_value)
## # A tibble: 293 x 2
##    store_id total_sales_value
##    <chr>                <dbl>
##  1 367                  7713.
##  2 406                  6034.
##  3 429                  4702.
##  4 343                  4471.
##  5 361                  4061.
##  6 356                  3807.
##  7 381                  3746.
##  8 292                  3702.
##  9 31782                3684.
## 10 321                  3515.
## # … with 283 more rows
```

``` r
transactions %>%
  mutate(pct_loyalty_disc = 1 - (loyalty_price / regular_price)) %>%
  group_by(store_id) %>%
  summarize(avg_pct_loyalty_disc = mean(pct_loyalty_disc, na.rm = TRUE)) %>%
  arrange(desc(avg_pct_loyalty_disc))
## # A tibble: 293 x 2
##    store_id avg_pct_loyalty_disc
##    <chr>                   <dbl>
##  1 224                     0.576
##  2 62                      0.501
##  3 779                     0.475
##  4 3163                    0.433
##  5 784                     0.430
##  6 2950                    0.418
##  7 572                     0.401
##  8 65                      0.390
##  9 486                     0.388
## 10 2839                    0.373
## # … with 283 more rows
```
…
