Data Structures
…
* You will use them on a daily basis
   - For filtering
   - For naming columns
   - Creating factor levels
   - Holding values for comparison
   - ...
]   

.pull-right[

```r
# for filtering
dplyr::filter(warpbreaks, tension %in% c("L", "H")) %>% as_tibble()
## # A tibble: 36 x 3
##    breaks wool  tension
##     <dbl> <fct> <fct>  
##  1     26 A     L      
##  2     30 A     L      
##  3     54 A     L      
##  4     25 A     L      
##  5     70 A     L      
##  6     52 A     L      
##  7     51 A     L      
##  8     26 A     L      
##  9     67 A     L      
## 10     36 A     H      
## # ... with 26 more rows
…
* Can contain .blue[heterogenous data]

* All columns must be of equal length

* A .blue[tibble] is just a .blue[slightly modified data frame]

]

.pull-right[

```r
completejourney::transactions
## # A tibble: 1,469,307 x 11
##    household_id store_id basket_id product_id quantity sales_value
##    <chr>        <chr>    <chr>     <chr>         <int>       <dbl>
##  1 900          330      31198570… 1095275           1        0.5 
##  2 900          330      31198570… 9878513           1        0.99
##  3 1228         406      31198655… 1041453           1        1.43
##  4 906          319      31198705… 1020156           1        1.5 
##  5 906          319      31198705… 1053875           2        2.78
##  6 906          319      31198705… 1060312           1        5.49
##  7 906          319      31198705… 1075313           1        1.5 
##  8 1058         381      31198676… 985893            1        1.88
##  9 1058         381      31198676… 988791            1        1.5 
## 10 1058         381      31198676… 9297106           1        2.69
## # ... with 1,469,297 more rows, and 5 more variables: retail_disc <dbl>,
## #   coupon_disc <dbl>, coupon_match_disc <dbl>, week <dbl>,
## #   transaction_timestamp <dttm>
```
…
# Indexing

For data frames, we can actually extract a single column 3 different ways:

* preserve: `data.frame[column]`
* simplify: `data.frame[[column]]`
* simplify: `data.frame$column`

.pull-left-30[

```r
# preserve output as data frame
mpg["cty"]
## # A tibble: 234 x 1
##      cty
##    <int>
##  1    18
##  2    21
##  3    20
##  4    21
##  5    16
##  6    18
##  7    18
##  8    18
##  9    16
## 10    20
## # ... with 224 more rows
```
…
l1
## $item1
##  [1]  3  8  5  9 10  1  6  9  6  5 10  5  7  6  2  9  3  1  4 10  9  7  7
## [24] 10  7
## 
## $item2
##      [,1] [,2] [,3] [,4] [,5]
## [1,]    3    1   10    9    9
## [2,]    8    6    5    3    7
## [3,]    5    9    7    1    7
## [4,]    9    6    6    4   10
## [5,]   10    5    2   10    7
## 
## $item3
## # A tibble: 234 x 11
##    manufacturer model displ  year   cyl trans drv     cty   hwy fl    cla…
##    <chr>        <chr> <dbl> <int> <int> <chr> <chr> <int> <int> <chr> <ch>
##  1 audi         a4      1.8  1999     4 auto… f        18    29 p     com…
##  2 audi         a4      1.8  1999     4 manu… f        21    29 p     com…
##  3 audi         a4      2    2008     4 manu… f        20    31 p     com…
##  4 audi         a4      2    2008     4 auto… f        21    30 p     com…
##  5 audi         a4      2.8  1999     6 auto… f        16    26 p     com…
##  6 audi         a4      2.8  1999     6 manu… f        18    26 p     com…
##  7 audi         a4      3.1  2008     6 auto… f        18    27 p     com…
##  8 audi         a4 q…   1.8  1999     4 manu… 4        18    26 p     com…
##  9 audi         a4 q…   1.8  1999     4 auto… 4        16    25 p     com…
## 10 audi         a4 q…   2    2008     4 manu… 4        20    28 p     com…
## # ... with 224 more rows
```
…
