Transforming Data
…
```r
library(dplyr) # or library(tidyverse)
```

]

.pull-right[

### Data

```r
transactions <- data.table::fread("data/transactions.csv", data.table = FALSE) %>% as.tibble()
transactions
## # A tibble: 1,857,567 x 9
##    basket_num hshd_num purchase_ product_num spend units store_r week_num
##         <int>    <int> <chr>           <int> <dbl> <int> <chr>      <int>
##  1     100369     3708 09-DEC-17       93466  3.18     2 SOUTH        101
##  2     891779      719 20-SEP-17       85201  3.49     1 CENTRAL       90
##  3     609562     4995 07-MAR-17     2507006  0.89     1 CENTRAL       62
##  4     760220       44 19-JUN-17     4819172  8.99     1 SOUTH         77
##  5     869525     3937 04-SEP-17     1055355  1        1 SOUTH         88
##  6     922989     2356 13-OCT-17     4285485  2.87     1 WEST          93
##  7     732544      694 31-MAY-17        8511  0.64     1 CENTRAL       74
##  8     536185     3728 14-JAN-17       85939  1        1 SOUTH         54
##  9     967914      887 15-NOV-17     3775301  4.69     1 CENTRAL       98
## 10     102995      574 27-DEC-17       72765  1.29     1 EAST         104
## # ... with 1,857,557 more rows, and 1 more variable: year <int>
```
…
.white[.center[.content-box-grey-dark[dplyr function] .content-box-blue-dark[data frame to transform] .content-box-red-dark[conditions to filter data]]]

---

# Filtering variables

.bold[We can filter our data set based on given conditions for one or more variables with .font140.grey[`filter()`]]

.scrollable90[

```r
# filter for all observations for household 3780
*filter(transactions, hshd_num == "3708")
## # A tibble: 565 x 9
##    basket_num hshd_num purchase_ product_num spend units store_r week_num
##         <int>    <int> <chr>           <int> <dbl> <int> <chr>      <int>
##  1     100369     3708 09-DEC-17       93466  3.18     2 SOUTH        101
##  2     636498     3708 25-MAR-17     1107634  1.29     1 SOUTH         64
##  3     546082     3708 21-JAN-17     1107675  1.5      6 SOUTH         55
##  4     684954     3708 29-APR-17     5972414  2.49     1 SOUTH         69
##  5     616834     3708 11-MAR-17     3688758  1.49     1 SOUTH         62
##  6     717587     3708 20-MAY-17       93484  0.99     1 SOUTH         72
##  7     636498     3708 25-MAR-17     3816309  1.78     2 SOUTH         64
##  8     963134     3708 11-NOV-17     5867925  8.37     3 SOUTH         97
##  9     758341     3708 18-JUN-17     6487780  1.99     1 SOUTH         77
## 10     955303     3708 04-NOV-17     4896971  1        1 SOUTH         96
## # ... with 555 more rows, and 1 more variable: year <int>

# filter for all observations for household 3780 with spending over $3
*filter(transactions, hshd_num == "3708", spend > 3)
## # A tibble: 197 x 9
##    basket_num hshd_num purchase_ product_num spend units store_r week_num
##         <int>    <int> <chr>           <int> <dbl> <int> <chr>      <int>
##  1     100369     3708 09-DEC-17       93466  3.18     2 SOUTH        101
##  2     963134     3708 11-NOV-17     5867925  8.37     3 SOUTH         97
##  3     973940     3708 18-NOV-17       85383  6.96     8 SOUTH         98
##  4     955303     3708 04-NOV-17      633008  3.29     1 SOUTH         96
##  5     896784     3708 23-SEP-17       85383  5.53     7 SOUTH         90
##  6     564871     3708 04-FEB-17     5510044  3.69     1 SOUTH         57
##  7     806865     3708 22-JUL-17     5849247  3.79     1 SOUTH         81
##  8     934452     3708 21-OCT-17       85383  6.09     7 SOUTH         94
##  9     747396     3708 10-JUN-17      933615  8.99     1 SOUTH         75
## 10     747396     3708 10-JUN-17     5235072  4.19     1 SOUTH         75
## # ... with 187 more rows, and 1 more variable: year <int>

# filter for household 3780 with spending over $3 for all products except 85383
*filter(transactions, hshd_num == "3708", spend > 3, product_num != 85383)
## # A tibble: 176 x 9
##    basket_num hshd_num purchase_ product_num spend units store_r week_num
##         <int>    <int> <chr>           <int> <dbl> <int> <chr>      <int>
##  1     100369     3708 09-DEC-17       93466  3.18     2 SOUTH        101
##  2     963134     3708 11-NOV-17     5867925  8.37     3 SOUTH         97
##  3     955303     3708 04-NOV-17      633008  3.29     1 SOUTH         96
##  4     564871     3708 04-FEB-17     5510044  3.69     1 SOUTH         57
##  5     806865     3708 22-JUL-17     5849247  3.79     1 SOUTH         81
##  6     747396     3708 10-JUN-17      933615  8.99     1 SOUTH         75
##  7     747396     3708 10-JUN-17     5235072  4.19     1 SOUTH         75
##  8     896784     3708 23-SEP-17     6139597  5.99     1 SOUTH         90
##  9     737913     3708 03-JUN-17      103780 11.0      1 SOUTH         74
## 10     519995     3708 02-JAN-17     2956277  5        2 SOUTH         53
## # ... with 166 more rows, and 1 more variable: year <int>
```

]

---

# Save new data frame

.bold[dplyr functions .red[do not] over-write data; must save to a new data frame object.]

```r
hshd_3708 <- filter(transactions, hshd_num == "3708")
hshd_3708
## # A tibble: 565 x 9
##    basket_num hshd_num purchase_ product_num spend units store_r week_num
##         <int>    <int> <chr>           <int> <dbl> <int> <chr>      <int>
##  1     100369     3708 09-DEC-17       93466  3.18     2 SOUTH        101
##  2     636498     3708 25-MAR-17     1107634  1.29     1 SOUTH         64
##  3     546082     3708 21-JAN-17     1107675  1.5      6 SOUTH         55
##  4     684954     3708 29-APR-17     5972414  2.49     1 SOUTH         69
##  5     616834     3708 11-MAR-17     3688758  1.49     1 SOUTH         62
##  6     717587     3708 20-MAY-17       93484  0.99     1 SOUTH         72
##  7     636498     3708 25-MAR-17     3816309  1.78     2 SOUTH         64
##  8     963134     3708 11-NOV-17     5867925  8.37     3 SOUTH         97
##  9     758341     3708 18-JUN-17     6487780  1.99     1 SOUTH         77
## 10     955303     3708 04-NOV-17     4896971  1        1 SOUTH         96
## # ... with 555 more rows, and 1 more variable: year <int>
```
…
<br>

.white[.center[.content-box-grey[dplyr function] .content-box-blue[data frame to transform] .content-box-red-dark[names of columns to extract]]]

---

# Selecting variables

.bold[We can select variables of interest with the .font130.grey[`select()`] function]

.scrollable90[

```r
select(transactions, product_num, spend, units, store_r, week_num)
## # A tibble: 1,857,567 x 5
##    product_num spend units store_r week_num
##          <int> <dbl> <int> <chr>      <int>
##  1       93466  3.18     2 SOUTH        101
##  2       85201  3.49     1 CENTRAL       90
##  3     2507006  0.89     1 CENTRAL       62
##  4     4819172  8.99     1 SOUTH         77
##  5     1055355  1        1 SOUTH         88
##  6     4285485  2.87     1 WEST          93
##  7        8511  0.64     1 CENTRAL       74
##  8       85939  1        1 SOUTH         54
##  9     3775301  4.69     1 CENTRAL       98
## 10       72765  1.29     1 EAST         104
## # ... with 1,857,557 more rows

# produces same as above
select(transactions, product_num:week_num)
## # A tibble: 1,857,567 x 5
##    product_num spend units store_r week_num
##          <int> <dbl> <int> <chr>      <int>
##  1       93466  3.18     2 SOUTH        101
##  2       85201  3.49     1 CENTRAL       90
##  3     2507006  0.89     1 CENTRAL       62
##  4     4819172  8.99     1 SOUTH         77
##  5     1055355  1        1 SOUTH         88
##  6     4285485  2.87     1 WEST          93
##  7        8511  0.64     1 CENTRAL       74
##  8       85939  1        1 SOUTH         54
##  9     3775301  4.69     1 CENTRAL       98
## 10       72765  1.29     1 EAST         104
## # ... with 1,857,557 more rows
```
…
...and more (see `?tidyselect::select_helpers`)

]

.pull-right[

### Examples

```r
# starts with example
select(transactions, ends_with("num"))
## # A tibble: 1,857,567 x 4
##    basket_num hshd_num product_num week_num
##         <int>    <int>       <int>    <int>
##  1     100369     3708       93466      101
##  2     891779      719       85201       90
##  3     609562     4995     2507006       62
##  4     760220       44     4819172       77
##  5     869525     3937     1055355       88
##  6     922989     2356     4285485       93
##  7     732544      694        8511       74
##  8     536185     3728       85939       54
##  9     967914      887     3775301       98
## 10     102995      574       72765      104
## # ... with 1,857,557 more rows

# ends with example
select(transactions, contains("_"))
## # A tibble: 1,857,567 x 6
##    basket_num hshd_num purchase_ product_num store_r week_num
##         <int>    <int> <chr>           <int> <chr>      <int>
##  1     100369     3708 09-DEC-17       93466 SOUTH        101
##  2     891779      719 20-SEP-17       85201 CENTRAL       90
##  3     609562     4995 07-MAR-17     2507006 CENTRAL       62
##  4     760220       44 19-JUN-17     4819172 SOUTH         77
##  5     869525     3937 04-SEP-17     1055355 SOUTH         88
##  6     922989     2356 13-OCT-17     4285485 WEST          93
##  7     732544      694 31-MAY-17        8511 CENTRAL       74
##  8     536185     3728 14-JAN-17       85939 SOUTH         54
##  9     967914      887 15-NOV-17     3775301 CENTRAL       98
## 10     102995      574 27-DEC-17       72765 EAST         104
## # ... with 1,857,557 more rows

# combining different select helpers
select(transactions, c(year, ends_with("num"), contains("_")))
## # A tibble: 1,857,567 x 7
##     year basket_num hshd_num product_num week_num purchase_ store_r
##    <int>      <int>    <int>       <int>    <int> <chr>     <chr>  
##  1  2017     100369     3708       93466      101 09-DEC-17 SOUTH  
##  2  2017     891779      719       85201       90 20-SEP-17 CENTRAL
##  3  2017     609562     4995     2507006       62 07-MAR-17 CENTRAL
##  4  2017     760220       44     4819172       77 19-JUN-17 SOUTH  
##  5  2017     869525     3937     1055355       88 04-SEP-17 SOUTH  
##  6  2017     922989     2356     4285485       93 13-OCT-17 WEST   
##  7  2017     732544      694        8511       74 31-MAY-17 CENTRAL
##  8  2017     536185     3728       85939       54 14-JAN-17 SOUTH  
##  9  2017     967914      887     3775301       98 15-NOV-17 CENTRAL
## 10  2017     102995      574       72765      104 27-DEC-17 EAST   
## # ... with 1,857,557 more rows
```
…
.pull-right[

### Solution

```r
# 1. Import the __households.csv__ data
households <- read_csv("data/households.csv")

# 2. Select all columns that contain "_"
reduced_df <- select(households, contains("_"))

#3. Filter for those observations that fall in the "75-99K" income range
filter(reduced_df, income_range == "75-99K")
## # A tibble: 594 x 5
##    hshd_num age_range     income_range hshd_composition hh_size
##    <chr>    <chr>         <chr>        <chr>            <chr>  
##  1 1171     75+           75-99K       <NA>             null   
##  2 1531     75+           75-99K       <NA>             null   
##  3 1580     35-44         75-99K       <NA>             null   
##  4 2902     35-44         75-99K       <NA>             null   
##  5 1093     45-54         75-99K       <NA>             null   
##  6 2377     45-54         75-99K       <NA>             null   
##  7 4402     45-54         75-99K       <NA>             null   
##  8 4639     45-54         75-99K       <NA>             null   
##  9 4762     65-74         75-99K       <NA>             null   
## 10 0269     NOT AVAILABLE 75-99K       <NA>             null   
## # ... with 584 more rows
```
…
.white[.center[.content-box-grey[dplyr function] .content-box-blue[data frame to transform] .content-box-red-dark[one or more columns to order by]]]

---

# Arranging data based on values

.bold[We can select variables of interest with the .font130.grey[`arrange()`] function]

.pull-left[

### Ascending order

```r
arrange(transactions, spend)
## # A tibble: 1,857,567 x 9
##    basket_num hshd_num purchase_ product_num spend units store_r week_num
##         <int>    <int> <chr>           <int> <dbl> <int> <chr>      <int>
##  1     100791     1592 10-DEC-17     5895132 -15.0    -1 WEST         102
##  2     995139     2215 03-DEC-17     6530599 -15.0    -1 WEST         101
##  3     809392      511 24-JUL-17     5280421 -15.0    -1 CENTRAL       82
##  4     543439     3309 18-JAN-17     6476706 -15.0    -1 SOUTH         55
##  5     844999     2776 18-AUG-17     4353736 -15.0    -1 WEST          85
##  6     102640     4078 23-DEC-17     6298451 -15.0    -1 EAST         103
##  7     738866     3293 03-JUN-17     6548638 -15.0    -1 SOUTH         74
##  8     579085     1346 13-FEB-17     6186554 -15.0    -1 EAST          59
##  9     101952     4599 18-DEC-17     6634374 -15.0    -1 SOUTH        103
## 10     545229     2106 19-JAN-17     6148132 -15.0    -1 WEST          55
## # ... with 1,857,557 more rows, and 1 more variable: year <int>
```

]

.pull-right[

### Descending order

```r
arrange(transactions, desc(spend))
## # A tibble: 1,857,567 x 9
##    basket_num hshd_num purchase_ product_num spend units store_r week_num
##         <int>    <int> <chr>           <int> <dbl> <int> <chr>      <int>
##  1     526404      985 05-JAN-17     3764235  282.    10 CENTRAL       53
##  2     101308     3977 17-DEC-17     3319279  276.     4 EAST         103
##  3     921333     3934 11-OCT-17     5232147  260.     1 EAST          93
##  4     849384     2775 21-AUG-17     6298353  250.     1 WEST          86
##  5     646596      985 01-APR-17     3764235  226.     8 CENTRAL       65
##  6     799338      985 16-JUL-17     3764235  226.     8 CENTRAL       81
##  7     791836       63 12-JUL-17       86471  210     84 EAST          80
##  8     985855     1270 26-NOV-17     6659474  210.     1 EAST         100
##  9     842832     1238 15-AUG-17      153329  204.    24 EAST          85
## 10     773947     1730 30-JUN-17     1356008  183      7 EAST          78
## # ... with 1,857,557 more rows, and 1 more variable: year <int>
```
…
# Summarizing .red[grouped] data

.bold[Summary statistics become more powerful when we can compute and compare at different aggregated levels]

.pull-left[

#### Avg spend by week

```r
# group data
by_week <- group_by(transactions, week_num)

# compute summary stat
summarize(by_week, spend_avg = mean(spend, na.rm = TRUE))
## # A tibble: 52 x 2
##    week_num spend_avg
##       <int>     <dbl>
##  1       53      3.51
##  2       54      3.49
##  3       55      3.55
##  4       56      3.48
##  5       57      3.54
##  6       58      3.59
##  7       59      3.74
##  8       60      3.58
##  9       61      3.58
## 10       62      3.60
## # ... with 42 more rows
```
…
--

.pull-right[

### Solution

```r
transactions %>%
  filter(store_r == "SOUTH") %>%
  group_by(product_num) %>%
  summarize(spend_avg = mean(spend, na.rm = TRUE)) %>%
  arrange(desc(spend_avg))
## # A tibble: 44,883 x 2
##    product_num spend_avg
##          <int>     <dbl>
##  1     1144005     182. 
##  2     6482901     150. 
##  3      343329     143. 
##  4     6296414     119  
##  5     3764235      96.4
##  6     5649118      90.0
##  7     6138733      90.0
##  8     1452445      88.4
##  9     1226570      86.3
## 10     1367767      85.8
## # ... with 44,873 more rows
```
…
<br>

.white[.center[.content-box-grey[dplyr function] .content-box-blue[data frame to transform] .content-box-red-dark[one or more new variables to create]]]

---

# Mutate variables

.bold[We can create new variables with the .font130.grey[`mutate()`] function]

```r
*mutate(transactions, price_per_unit = spend / units) %>%
  select(spend, units, price_per_unit, everything())
## # A tibble: 1,857,567 x 10
##    spend units price_per_unit basket_num hshd_num purchase_ product_num
##    <dbl> <int>          <dbl>      <int>    <int> <chr>           <int>
##  1  3.18     2           1.59     100369     3708 09-DEC-17       93466
##  2  3.49     1           3.49     891779      719 20-SEP-17       85201
##  3  0.89     1           0.89     609562     4995 07-MAR-17     2507006
##  4  8.99     1           8.99     760220       44 19-JUN-17     4819172
##  5  1        1           1        869525     3937 04-SEP-17     1055355
##  6  2.87     1           2.87     922989     2356 13-OCT-17     4285485
##  7  0.64     1           0.64     732544      694 31-MAY-17        8511
##  8  1        1           1        536185     3728 14-JAN-17       85939
##  9  4.69     1           4.69     967914      887 15-NOV-17     3775301
## 10  1.29     1           1.29     102995      574 27-DEC-17       72765
## # ... with 1,857,557 more rows, and 3 more variables: store_r <chr>,
## #   week_num <int>, year <int>
```
…
```r
transactions %>%
  group_by(week_num) %>%
  summarize(
    spend = sum(spend, na.rm = TRUE),
    units = sum(units, na.rm = TRUE)
  ) %>% 
* mutate(
*   avg_spend_per_unit = spend / units,
*   wow_perc_growth    = (avg_spend_per_unit / lag(avg_spend_per_unit)) - 1,
*   wtd_net_spend      = cumsum(spend),
*   wtd_net_units      = cumsum(units)
* )
## # A tibble: 52 x 7
##    week_num  spend units avg_spend_per_u… wow_perc_growth wtd_net_spend
##       <int>  <dbl> <int>            <dbl>           <dbl>         <dbl>
##  1       53 1.31e5 48538             2.71        NA             131328.
##  2       54 1.26e5 46761             2.68        -0.00802       256833.
##  3       55 1.29e5 46961             2.74         0.0203        385436.
##  4       56 1.22e5 45640             2.67        -0.0234        507492.
##  5       57 1.35e5 49397             2.73         0.0206        642319.
##  6       58 1.27e5 45594             2.79         0.0215        769444.
##  7       59 1.35e5 46514             2.89         0.0378        904042.
##  8       60 1.22e5 44098             2.78        -0.0410       1026422.
##  9       61 1.26e5 45549             2.76        -0.00629      1152033.
## 10       62 1.31e5 47446             2.77         0.00478      1283502.
## # ... with 42 more rows, and 1 more variable: wtd_net_units <int>
```
…
.pull-right[

```r
# mean center data
transmute(transactions, center_spend = spend / mean(spend, na.rm = TRUE))
## # A tibble: 1,857,567 x 1
##    center_spend
##           <dbl>
##  1        0.880
##  2        0.966
##  3        0.246
##  4        2.49 
##  5        0.277
##  6        0.794
##  7        0.177
##  8        0.277
##  9        1.30 
## 10        0.357
## # ... with 1,857,557 more rows

# transform values
transmute(transactions,
  log_spend = log(spend),
  exp_spend = exp(spend))
## # A tibble: 1,857,567 x 2
##    log_spend exp_spend
##        <dbl>     <dbl>
##  1     1.16      24.0 
##  2     1.25      32.8 
##  3    -0.117      2.44
##  4     2.20    8022.  
##  5     0          2.72
##  6     1.05      17.6 
##  7    -0.446      1.90
##  8     0          2.72
##  9     1.55     109.  
## 10     0.255      3.63
## # ... with 1,857,557 more rows

# lag and cumsum values
transmute(transactions,
  spend     = spend,
  lag_spend = lag(spend),
  sum_spend = cumsum(spend))
## # A tibble: 1,857,567 x 3
##    spend lag_spend sum_spend
##    <dbl>     <dbl>     <dbl>
##  1  3.18     NA         3.18
##  2  3.49      3.18      6.67
##  3  0.89      3.49      7.56
##  4  8.99      0.89     16.6 
##  5  1         8.99     17.6 
##  6  2.87      1        20.4 
##  7  0.64      2.87     21.1 
##  8  1         0.64     22.1 
##  9  4.69      1        26.8 
## 10  1.29      4.69     28.0 
## # ... with 1,857,557 more rows
```
…
