Day 2 Intro
…
.pull-right[

### Solution

```r
transactions %>%
  group_by(purchase_) %>%
  summarize(
    spend = sum(spend, na.rm = TRUE),
    units = sum(units, na.rm = TRUE)
    ) %>%
  mutate(spend_to_units = spend / units) %>%
  arrange(desc(spend_to_units))
## # A tibble: 363 x 4
##    purchase_  spend units spend_to_units
##    <chr>      <dbl> <int>          <dbl>
##  1 14-FEB-17 18971.  5372           3.53
##  2 23-NOV-17  8514.  2669           3.19
##  3 14-MAY-17 25180.  8070           3.12
##  4 24-DEC-17 25316.  8138           3.11
##  5 13-MAY-17 25785.  8303           3.11
##  6 13-FEB-17 20300.  6619           3.07
##  7 23-DEC-17 37721. 12312           3.06
##  8 24-NOV-17 13037.  4311           3.02
##  9 15-SEP-17 18488.  6129           3.02
## 10 28-NOV-17 12863.  4285           3.00
## # ... with 353 more rows
```
…
