An .red[Incomplete] Introduction to R
…
typeof(c(TRUE, TRUE, FALSE))
## [1] "logical"
```

]

.pull-right[

```r
transactions %>%
  select(basket_id, coupon_disc) %>% 
* mutate(used_coupon = coupon_disc > 0)
## # A tibble: 1,469,307 x 3
##    basket_id   coupon_disc used_coupon
##    <chr>             <dbl> <lgl>      
##  1 31198570044           0 FALSE      
##  2 31198570047           0 FALSE      
##  3 31198655051           0 FALSE      
##  4 31198705046           0 FALSE      
##  5 31198705046           0 FALSE      
##  6 31198705046           0 FALSE      
##  7 31198705046           0 FALSE      
##  8 31198676055           0 FALSE      
##  9 31198676055           0 FALSE      
## 10 31198676055           0 FALSE      
## # ... with 1,469,297 more rows
```
…
