Importing Data
…
<img src="images/importing-pkgs.png" width="90%" style="display: block; margin: auto;" />

---

# readr for delimited files (i.e. .csv, .tsv. txt)

```r
# load readr library (or tidyverse)
library(readr)

# import data
products <- read_csv(file = "data/products.csv")
products
## # A tibble: 151,141 x 5
##    product_num department commodity brand_ty x5   
##    <chr>       <chr>      <chr>     <chr>    <chr>
##  1 0092993     NON-FOOD   PET       PRIVATE  N    
##  2 0093924     NON-FOOD   PET       PRIVATE  N    
##  3 0094272     NON-FOOD   PET       PRIVATE  N    
##  4 0094299     NON-FOOD   PET       PRIVATE  N    
##  5 0094594     NON-FOOD   PET       PRIVATE  N    
##  6 0094606     NON-FOOD   PET       PRIVATE  N    
##  7 0094613     NON-FOOD   PET       PRIVATE  N    
##  8 0095625     NON-FOOD   PET       PRIVATE  N    
##  9 0096152     NON-FOOD   PET       PRIVATE  N    
## 10 0096153     NON-FOOD   PET       PRIVATE  N    
## # ... with 151,131 more rows
```
…
.pull-left-60[

```r
# load readxl
library(readxl)

# read workbook sheets
excel_sheets(path = "data/products.xlsx")
## [1] "metadata"      "products data" "grocery list"

# import sheet of interest
products <- read_excel(path = "data/products.xlsx", sheet = "products data")
products
## # A tibble: 151,141 x 5
##    product_num department commodity brand_ty x5   
##          <dbl> <chr>      <chr>     <chr>    <chr>
##  1       92993 NON-FOOD   PET       PRIVATE  N    
##  2       93924 NON-FOOD   PET       PRIVATE  N    
##  3       94272 NON-FOOD   PET       PRIVATE  N    
##  4       94299 NON-FOOD   PET       PRIVATE  N    
##  5       94594 NON-FOOD   PET       PRIVATE  N    
##  6       94606 NON-FOOD   PET       PRIVATE  N    
##  7       94613 NON-FOOD   PET       PRIVATE  N    
##  8       95625 NON-FOOD   PET       PRIVATE  N    
##  9       96152 NON-FOOD   PET       PRIVATE  N    
## 10       96153 NON-FOOD   PET       PRIVATE  N    
## # ... with 151,131 more rows
```
…
]

.pull-right[

### tibble 

```r
transactions <- read_csv("data/transactions.csv")
transactions
## # A tibble: 1,857,567 x 9
##    basket_num hshd_num purchase_ product_num spend units store_r week_num
##         <int>    <int> <chr>           <int> <dbl> <int> <chr>      <int>
##  1     100369     3708 09-DEC-17       93466  3.18     2 SOUTH        101
##  2     891779      719 20-SEP-17       85201  3.49     1 CENTRAL       90
##  3     609562     4995 07-MAR-17     2507006  0.89     1 CENTRAL       62
##  4     760220       44 19-JUN-17     4819172  8.99     1 SOUTH         77
##  5     869525     3937 04-SEP-17     1055355  1        1 SOUTH         88
##  6     922989     2356 13-OCT-17     4285485  2.87     1 WEST          93
##  7     732544      694 31-MAY-17        8511  0.64     1 CENTRAL       74
##  8     536185     3728 14-JAN-17       85939  1        1 SOUTH         54
##  9     967914      887 15-NOV-17     3775301  4.69     1 CENTRAL       98
## 10     102995      574 27-DEC-17       72765  1.29     1 EAST         104
## # ... with 1,857,557 more rows, and 1 more variable: year <int>
```
…
---

# Tibbles

.scrollable90[
.pull-left[

### data frame `\(\rightarrow\)` tibble 

```r
transactions <- data.table::fread("data/transactions.csv", data.table = FALSE)
*transactions <- as.tibble(transactions)

transactions
## # A tibble: 1,857,567 x 9
##    basket_num hshd_num purchase_ product_num spend units store_r week_num
##         <int>    <int> <chr>           <int> <dbl> <int> <chr>      <int>
##  1     100369     3708 09-DEC-17       93466  3.18     2 SOUTH        101
##  2     891779      719 20-SEP-17       85201  3.49     1 CENTRAL       90
##  3     609562     4995 07-MAR-17     2507006  0.89     1 CENTRAL       62
##  4     760220       44 19-JUN-17     4819172  8.99     1 SOUTH         77
##  5     869525     3937 04-SEP-17     1055355  1        1 SOUTH         88
##  6     922989     2356 13-OCT-17     4285485  2.87     1 WEST          93
##  7     732544      694 31-MAY-17        8511  0.64     1 CENTRAL       74
##  8     536185     3728 14-JAN-17       85939  1        1 SOUTH         54
##  9     967914      887 15-NOV-17     3775301  4.69     1 CENTRAL       98
## 10     102995      574 27-DEC-17       72765  1.29     1 EAST         104
## # ... with 1,857,557 more rows, and 1 more variable: year <int>
```
…
