An .red[Incomplete] Introduction to R
…
.pull-right[

### Solution

```r
transactions %>%
  group_by(purchase_) %>%
  summarize(
    spend = sum(spend, na.rm = TRUE),
    units = sum(units, na.rm = TRUE)
    ) %>%
  mutate(spend_to_units = spend / units) %>%
  arrange(desc(spend_to_units))
## # A tibble: 363 x 4
##    purchase_  spend units spend_to_units
##    <chr>      <dbl> <int>          <dbl>
##  1 14-FEB-17 18971.  5372           3.53
##  2 23-NOV-17  8514.  2669           3.19
##  3 14-MAY-17 25180.  8070           3.12
##  4 24-DEC-17 25316.  8138           3.11
##  5 13-MAY-17 25785.  8303           3.11
##  6 13-FEB-17 20300.  6619           3.07
##  7 23-DEC-17 37721. 12312           3.06
##  8 24-NOV-17 13037.  4311           3.02
##  9 15-SEP-17 18488.  6129           3.02
## 10 28-NOV-17 12863.  4285           3.00
## # ... with 353 more rows
```
…
# Making better names

```r
transactions <- transactions %>%
  rename(
    basket_id     = basket_num,
    household_id  = hshd_num,
    purchase_date = purchase_,
    product_id    = product_num,
    store_region  = store_r,
    week          = week_num
  )

transactions
## # A tibble: 1,857,567 x 9
##    basket_id household_id purchase_date product_id spend units store_region
##        <int>        <int> <chr>              <int> <dbl> <int> <chr>       
##  1    100369         3708 09-DEC-17          93466  3.18     2 SOUTH       
##  2    891779          719 20-SEP-17          85201  3.49     1 CENTRAL     
##  3    609562         4995 07-MAR-17        2507006  0.89     1 CENTRAL     
##  4    760220           44 19-JUN-17        4819172  8.99     1 SOUTH       
##  5    869525         3937 04-SEP-17        1055355  1        1 SOUTH       
##  6    922989         2356 13-OCT-17        4285485  2.87     1 WEST        
##  7    732544          694 31-MAY-17           8511  0.64     1 CENTRAL     
##  8    536185         3728 14-JAN-17          85939  1        1 SOUTH       
##  9    967914          887 15-NOV-17        3775301  4.69     1 CENTRAL     
## 10    102995          574 27-DEC-17          72765  1.29     1 EAST        
## # ... with 1,857,557 more rows, and 2 more variables: week <int>,
## #   year <int>
```
…
